x,y
0.379045529418461,0.0091402314989261
0.55483851643922,0.835295704069204
0.144002343837756,0.598293182935157
0.0171772978847032,0.534789575893057
0.909241769629205,0.713273678037197
0.720848912239791,0.708055427994013
0.628019404070957,0.0721231185374649
0.172615590330405,0.471976879971936
0.914665657671544,0.823080567742049
0.200460040327543,0.32205510684888
0.209653437800109,0.843158246963282
0.280629313365557,0.701147748067485
0.315641992098116,0.999800914090883
0.894373439398086,0.259498370520966
